\babel@toc {ngerman}{}
\contentsline {chapter}{\numberline {1}Untersuchung des Verhaltens neuronaler Netze}{2}%
\contentsline {section}{\numberline {1.1}Notation}{2}%
\contentsline {section}{\numberline {1.2}Funktionenklasse}{3}%
\contentsline {section}{\numberline {1.3}Parameterbestimmung bei Differentialgleichungen}{8}%
