\begin{thebibliography}{HZRS15}

\bibitem[HZRS15]{he2015}
Kaiming He, Xiangyu Zhang, Shaoqing Ren, and Jian Sun.
\newblock Delving deep into rectifiers: Surpassing human-level performance on
  imagenet classification, 2015.

\end{thebibliography}
