\relax 
\providecommand*\new@tpo@label[2]{}
\@nameuse{bbl@beforestart}
\catcode `"\active 
\babel@aux{ngerman}{}
\@input{./Chapter/Untersuchung.aux}
\bibdata{../Dateien/Literatur/Literaturverzeichnis}
\bibcite{he2015}{HZRS15}
\bibstyle{alpha}
\global\@namedef{scr@dte@chapter@lastmaxnumwidth}{9.16507pt}
\global\@namedef{scr@dte@section@lastmaxnumwidth}{17.33376pt}
