\relax 
\citation{Brauer19}
\@writefile{toc}{\contentsline {chapter}{\numberline {2}Künstliche neuronale Netze}{13}\protected@file@percent }
\@writefile{lof}{\addvspace {10\p@ }}
\@writefile{lot}{\addvspace {10\p@ }}
\@writefile{toc}{\contentsline {section}{\numberline {2.1}Historische Bemerkungen}{15}\protected@file@percent }
\@writefile{toc}{\contentsline {section}{\numberline {2.2}Grundlagen}{15}\protected@file@percent }
\newlabel{Def:KNN}{{2.2}{15}}
\@writefile{toc}{\contentsline {section}{\numberline {2.3}Minimierungsproblem}{15}\protected@file@percent }
\newlabel{Eq:l_Min}{{2.3}{16}}
\newlabel{Eq:KNN_Min}{{2.4}{16}}
\@writefile{toc}{\contentsline {section}{\numberline {2.4}Gradientenverfahren}{16}\protected@file@percent }
\@writefile{toc}{\contentsline {section}{\numberline {2.5}Fehlerrückführung}{17}\protected@file@percent }
\@writefile{toc}{\contentsline {section}{\numberline {2.6}RMSProp}{18}\protected@file@percent }
\@setckpt{./Chapter/KNN}{
\setcounter{page}{19}
\setcounter{equation}{4}
\setcounter{enumi}{0}
\setcounter{enumii}{0}
\setcounter{enumiii}{0}
\setcounter{enumiv}{0}
\setcounter{footnote}{0}
\setcounter{mpfootnote}{0}
\setcounter{part}{0}
\setcounter{chapter}{2}
\setcounter{section}{6}
\setcounter{subsection}{0}
\setcounter{subsubsection}{0}
\setcounter{paragraph}{0}
\setcounter{subparagraph}{0}
\setcounter{figure}{0}
\setcounter{table}{0}
\setcounter{perc}{120}
\setcounter{tubspage@vsegments}{8}
\setcounter{tubspage@gausssum}{36}
\setcounter{tmp@calc}{0}
\setcounter{tubs@gb@lastelement}{0}
\setcounter{tubs@gb@calcypos}{0}
\setcounter{tubs@gb@calcheight}{0}
\setcounter{tubs@sb@elementcount}{0}
\setcounter{tubs@sb@xcount}{0}
\setcounter{tubs@cnt}{0}
\setcounter{tubs@sb@current@col}{0}
\setcounter{tubs@sb@current@row}{0}
\setcounter{tubs@sb@current@subrow}{0}
\setcounter{tmp@calc@bgpos}{0}
\setcounter{tmpb@calc@bgpos}{0}
\setcounter{tubs@yseg@cnt}{0}
\setcounter{parentequation}{0}
\setcounter{caption@flags}{0}
\setcounter{continuedfloat}{0}
\setcounter{subfigure}{0}
\setcounter{subtable}{0}
\setcounter{float@type}{4}
\setcounter{definition}{0}
\setcounter{beispiel}{0}
}
