\relax 
\@setckpt{./Chapter/Modelle.tex}{
\setcounter{page}{1}
\setcounter{equation}{0}
\setcounter{enumi}{0}
\setcounter{enumii}{0}
\setcounter{enumiii}{0}
\setcounter{enumiv}{0}
\setcounter{footnote}{0}
\setcounter{mpfootnote}{0}
\setcounter{part}{0}
\setcounter{chapter}{0}
\setcounter{section}{0}
\setcounter{subsection}{0}
\setcounter{subsubsection}{0}
\setcounter{paragraph}{0}
\setcounter{subparagraph}{0}
\setcounter{figure}{0}
\setcounter{table}{0}
\setcounter{perc}{120}
\setcounter{tubspage@vsegments}{8}
\setcounter{tubspage@gausssum}{36}
\setcounter{tmp@calc}{0}
\setcounter{tubs@gb@lastelement}{0}
\setcounter{tubs@gb@calcypos}{0}
\setcounter{tubs@gb@calcheight}{0}
\setcounter{tubs@sb@elementcount}{0}
\setcounter{tubs@sb@xcount}{0}
\setcounter{tubs@cnt}{0}
\setcounter{tubs@sb@current@col}{0}
\setcounter{tubs@sb@current@row}{0}
\setcounter{tubs@sb@current@subrow}{0}
\setcounter{tmp@calc@bgpos}{0}
\setcounter{tmpb@calc@bgpos}{0}
\setcounter{tubs@yseg@cnt}{0}
\setcounter{parentequation}{0}
}
