\relax 
\@writefile{toc}{\contentsline {chapter}{\numberline {1}Modelle}{2}\protected@file@percent }
\@writefile{lof}{\addvspace {10\p@ }}
\@writefile{lot}{\addvspace {10\p@ }}
\@writefile{toc}{\contentsline {section}{\numberline {1.1}Kompartimentmodelle}{2}\protected@file@percent }
\citation{Heuser95}
\citation{Dietz01}
\@writefile{toc}{\contentsline {subsection}{\numberline {1.1.1}Kompartimentmodelle in der Epidemiologie}{3}\protected@file@percent }
\@writefile{lof}{\contentsline {figure}{\numberline {1.1}{\ignorespaces $SI$-Modell\relax }}{4}\protected@file@percent }
\newlabel{Eq:S_SI}{{1.2}{4}}
\newlabel{Eq:I_SI}{{1.3}{4}}
\newlabel{Eq:Kont_SI}{{1.4}{4}}
\@writefile{toc}{\contentsline {subsection}{\numberline {1.1.2}Analytische Lösung des $SI$-Modells}{4}\protected@file@percent }
\newlabel{Eq:Bernoulli_Einsetzen}{{1.5}{5}}
\newlabel{Eq:SI_lin}{{1.6}{5}}
\newlabel{Eq:SI_hom_sol}{{1.7}{5}}
\@writefile{toc}{\contentsline {section}{\numberline {1.2}Modellfamilie}{6}\protected@file@percent }
\@writefile{toc}{\contentsline {subsection}{\numberline {1.2.1}Mechanismen}{7}\protected@file@percent }
\providecommand*\caption@xref[2]{\@setref\relax\@undefined{#1}}
\newlabel{Tab_Parameter}{{\caption@xref {Tab_Parameter}{ on input line 452}}{9}}
\@writefile{lot}{\contentsline {table}{\numberline {1.1}{\ignorespaces Beschreibung der in den Modellen verwendeten Parameter\relax }}{9}\protected@file@percent }
\@writefile{toc}{\contentsline {subsection}{\numberline {1.2.2}Hierarchisierung}{9}\protected@file@percent }
\@writefile{lof}{\contentsline {figure}{\numberline {1.2}{\ignorespaces Hierarchische Struktur der betrachteten Modelle. Die Ebenen der Modellhierarchie ergeben sich aus der Anzahl der notwendigen Parameter eines Modells\relax }}{10}\protected@file@percent }
\newlabel{Familie}{{1.2}{10}}
\@writefile{toc}{\contentsline {section}{\numberline {1.3}Modelle}{10}\protected@file@percent }
\@writefile{toc}{\contentsline {subsection}{\numberline {1.3.1}SI- Modell}{10}\protected@file@percent }
\newlabel{Mo:SI}{{1.3.1}{10}}
\@writefile{toc}{\contentsline {subsection}{\numberline {1.3.2}SIS-Modell}{10}\protected@file@percent }
\newlabel{Mo:SIS}{{1.3.2}{10}}
\@writefile{toc}{\contentsline {subsection}{\numberline {1.3.3}SIR-Modell}{10}\protected@file@percent }
\newlabel{Mo:SIR}{{1.3.3}{10}}
\@writefile{toc}{\contentsline {subsection}{\numberline {1.3.4}SIRS-Modell}{11}\protected@file@percent }
\newlabel{Mo:SIRS}{{1.3.4}{11}}
\@writefile{toc}{\contentsline {subsection}{\numberline {1.3.5}SEIR-Modell}{11}\protected@file@percent }
\newlabel{Mo:SEIR}{{1.3.5}{11}}
\@writefile{toc}{\contentsline {subsection}{\numberline {1.3.6}SEIRS-Modell}{11}\protected@file@percent }
\newlabel{Mo:SEIRS}{{1.3.6}{11}}
\@writefile{toc}{\contentsline {subsection}{\numberline {1.3.7}SEIRD-Modell}{11}\protected@file@percent }
\newlabel{Mo:SEIRD}{{1.3.7}{11}}
\@setckpt{./Chapter/Modelle}{
\setcounter{page}{13}
\setcounter{equation}{8}
\setcounter{enumi}{0}
\setcounter{enumii}{0}
\setcounter{enumiii}{0}
\setcounter{enumiv}{0}
\setcounter{footnote}{0}
\setcounter{mpfootnote}{0}
\setcounter{part}{0}
\setcounter{chapter}{1}
\setcounter{section}{3}
\setcounter{subsection}{7}
\setcounter{subsubsection}{0}
\setcounter{paragraph}{0}
\setcounter{subparagraph}{0}
\setcounter{figure}{2}
\setcounter{table}{1}
\setcounter{perc}{120}
\setcounter{tubspage@vsegments}{8}
\setcounter{tubspage@gausssum}{36}
\setcounter{tmp@calc}{0}
\setcounter{tubs@gb@lastelement}{0}
\setcounter{tubs@gb@calcypos}{0}
\setcounter{tubs@gb@calcheight}{0}
\setcounter{tubs@sb@elementcount}{0}
\setcounter{tubs@sb@xcount}{0}
\setcounter{tubs@cnt}{0}
\setcounter{tubs@sb@current@col}{0}
\setcounter{tubs@sb@current@row}{0}
\setcounter{tubs@sb@current@subrow}{0}
\setcounter{tmp@calc@bgpos}{0}
\setcounter{tmpb@calc@bgpos}{0}
\setcounter{tubs@yseg@cnt}{0}
\setcounter{parentequation}{0}
\setcounter{caption@flags}{0}
\setcounter{continuedfloat}{0}
\setcounter{subfigure}{0}
\setcounter{subtable}{0}
\setcounter{float@type}{4}
\setcounter{definition}{0}
\setcounter{beispiel}{0}
}
