\relax 
\citation{}
\@writefile{toc}{\contentsline {chapter}{\numberline {1}Untersuchung des Verhaltens neuronaler Netze}{2}\protected@file@percent }
\@writefile{lof}{\addvspace {10\p@ }}
\@writefile{lot}{\addvspace {10\p@ }}
\@writefile{toc}{\contentsline {section}{\numberline {1.1}Notation}{2}\protected@file@percent }
\newlabel{Eq:DGL_Proto}{{1.1}{2}}
\newlabel{Eq:DGL_KNN_min}{{1.2}{3}}
\@writefile{toc}{\contentsline {section}{\numberline {1.2}Funktionenklasse}{3}\protected@file@percent }
\@writefile{lof}{\contentsline {figure}{\numberline {1.2}{\ignorespaces Beste Annäherung an die gegebenen vier Punkte durch lineare Regression\relax }}{5}\protected@file@percent }
\newlabel{Eq:Knick_Reg}{{1.4}{5}}
\@writefile{toc}{\contentsline {section}{\numberline {1.3}Parameterbestimmung bei Differentialgleichungen}{8}\protected@file@percent }
\newlabel{Eq:DGL1}{{1.3}{8}}
\newlabel{Eq:DGL1_Param}{{1.3}{9}}
\newlabel{Ex:VierPunkte}{{1.3.1}{9}}
\newlabel{Eq:DGL1_Beispiel}{{1.3.1}{9}}
\newlabel{Eq:DGL1_Min}{{1.3.1}{10}}
\newlabel{Eq:DGL2}{{1.5}{10}}
\citation{he2015}
\newlabel{Eq:2Komp_System_alpha}{{1.3}{16}}
\@setckpt{./Chapter/Untersuchung}{
\setcounter{page}{19}
\setcounter{equation}{5}
\setcounter{enumi}{0}
\setcounter{enumii}{0}
\setcounter{enumiii}{0}
\setcounter{enumiv}{0}
\setcounter{footnote}{0}
\setcounter{mpfootnote}{0}
\setcounter{part}{0}
\setcounter{chapter}{1}
\setcounter{section}{3}
\setcounter{subsection}{0}
\setcounter{subsubsection}{0}
\setcounter{paragraph}{0}
\setcounter{subparagraph}{0}
\setcounter{figure}{6}
\setcounter{table}{0}
\setcounter{perc}{120}
\setcounter{tubspage@vsegments}{8}
\setcounter{tubspage@gausssum}{36}
\setcounter{tmp@calc}{0}
\setcounter{tubs@gb@lastelement}{0}
\setcounter{tubs@gb@calcypos}{0}
\setcounter{tubs@gb@calcheight}{0}
\setcounter{tubs@sb@elementcount}{0}
\setcounter{tubs@sb@xcount}{0}
\setcounter{tubs@cnt}{0}
\setcounter{tubs@sb@current@col}{0}
\setcounter{tubs@sb@current@row}{0}
\setcounter{tubs@sb@current@subrow}{0}
\setcounter{tmp@calc@bgpos}{0}
\setcounter{tmpb@calc@bgpos}{0}
\setcounter{tubs@yseg@cnt}{0}
\setcounter{parentequation}{0}
\setcounter{caption@flags}{4}
\setcounter{continuedfloat}{0}
\setcounter{subfigure}{2}
\setcounter{subtable}{0}
\setcounter{float@type}{4}
\setcounter{definition}{0}
\setcounter{beispiel}{4}
}
