\relax 
\@writefile{toc}{\contentsline {chapter}{\numberline {2}Klassische Modellsuche}{7}\protected@file@percent }
\@writefile{lof}{\addvspace {10\p@ }}
\@writefile{lot}{\addvspace {10\p@ }}
\@writefile{toc}{\contentsline {section}{\numberline {2.1}Problem [https://d-nb.info/1012132374/34]}{7}\protected@file@percent }
\@writefile{toc}{\contentsline {section}{\numberline {2.2}L\IeC {\"o}sung des Linearen Ausgleichsproblems [https://d-nb.info/1012132374/34]}{7}\protected@file@percent }
\@writefile{toc}{\contentsline {section}{\numberline {2.3}Regressions-Modell https://arxiv.org/pdf/2003.14391.pdf}{8}\protected@file@percent }
\@writefile{toc}{\contentsline {section}{\numberline {2.4}Parametersuche mit Vorwissen}{8}\protected@file@percent }
\@setckpt{./Chapter/Klassische_Modellsuche}{
\setcounter{page}{9}
\setcounter{equation}{0}
\setcounter{enumi}{0}
\setcounter{enumii}{0}
\setcounter{enumiii}{0}
\setcounter{enumiv}{0}
\setcounter{footnote}{0}
\setcounter{mpfootnote}{0}
\setcounter{part}{0}
\setcounter{chapter}{2}
\setcounter{section}{4}
\setcounter{subsection}{0}
\setcounter{subsubsection}{0}
\setcounter{paragraph}{0}
\setcounter{subparagraph}{0}
\setcounter{figure}{0}
\setcounter{table}{0}
\setcounter{perc}{120}
\setcounter{tubspage@vsegments}{8}
\setcounter{tubspage@gausssum}{36}
\setcounter{tmp@calc}{0}
\setcounter{tubs@gb@lastelement}{0}
\setcounter{tubs@gb@calcypos}{0}
\setcounter{tubs@gb@calcheight}{0}
\setcounter{tubs@sb@elementcount}{0}
\setcounter{tubs@sb@xcount}{0}
\setcounter{tubs@cnt}{0}
\setcounter{tubs@sb@current@col}{0}
\setcounter{tubs@sb@current@row}{0}
\setcounter{tubs@sb@current@subrow}{0}
\setcounter{tmp@calc@bgpos}{0}
\setcounter{tmpb@calc@bgpos}{0}
\setcounter{tubs@yseg@cnt}{1}
\setcounter{parentequation}{0}
\setcounter{float@type}{4}
\setcounter{definition}{0}
}
