\relax 
\@writefile{toc}{\contentsline {chapter}{\numberline {6}Modellsuche mit neuronalen Netzen}{16}\protected@file@percent }
\@writefile{lof}{\addvspace {10\p@ }}
\@writefile{lot}{\addvspace {10\p@ }}
\@writefile{toc}{\contentsline {section}{\numberline {6.1}Erzeugung der Trainingsdaten}{17}\protected@file@percent }
\@writefile{toc}{\contentsline {section}{\numberline {6.2}Wahl der neuronalen Netze}{17}\protected@file@percent }
\@writefile{toc}{\contentsline {section}{\numberline {6.3}Training}{17}\protected@file@percent }
\@setckpt{./Chapter/Modellsuche_mit_KNN}{
\setcounter{page}{18}
\setcounter{equation}{0}
\setcounter{enumi}{0}
\setcounter{enumii}{0}
\setcounter{enumiii}{0}
\setcounter{enumiv}{0}
\setcounter{footnote}{0}
\setcounter{mpfootnote}{0}
\setcounter{part}{0}
\setcounter{chapter}{6}
\setcounter{section}{3}
\setcounter{subsection}{0}
\setcounter{subsubsection}{0}
\setcounter{paragraph}{0}
\setcounter{subparagraph}{0}
\setcounter{figure}{0}
\setcounter{table}{0}
\setcounter{perc}{120}
\setcounter{tubspage@vsegments}{8}
\setcounter{tubspage@gausssum}{36}
\setcounter{tmp@calc}{0}
\setcounter{tubs@gb@lastelement}{0}
\setcounter{tubs@gb@calcypos}{0}
\setcounter{tubs@gb@calcheight}{0}
\setcounter{tubs@sb@elementcount}{0}
\setcounter{tubs@sb@xcount}{0}
\setcounter{tubs@cnt}{0}
\setcounter{tubs@sb@current@col}{0}
\setcounter{tubs@sb@current@row}{0}
\setcounter{tubs@sb@current@subrow}{0}
\setcounter{tmp@calc@bgpos}{0}
\setcounter{tmpb@calc@bgpos}{0}
\setcounter{tubs@yseg@cnt}{1}
\setcounter{parentequation}{0}
\setcounter{float@type}{4}
\setcounter{definition}{0}
}
