\relax 
\@writefile{toc}{\contentsline {chapter}{\numberline {1}Modellfamilie}{3}\protected@file@percent }
\@writefile{lof}{\addvspace {10\p@ }}
\@writefile{lot}{\addvspace {10\p@ }}
\@writefile{lof}{\contentsline {figure}{\numberline {1.1}{\ignorespaces Hierarchische Struktur der betrachteten Modelle. Die Ebenen der Modellhierarchie ergeben sich aus der Anzahl der notwendigen Parameter eines Modells}}{3}\protected@file@percent }
\newlabel{Familie}{{1.1}{3}}
\@writefile{toc}{\contentsline {section}{\numberline {1.1}Mechanismen}{3}\protected@file@percent }
\newlabel{Tab_Parameter}{{1.1}{4}}
\@writefile{lot}{\contentsline {table}{\numberline {1.1}{\ignorespaces Beschreibung der in den Modellen verwendeten Parameter}}{4}\protected@file@percent }
\@writefile{toc}{\contentsline {section}{\numberline {1.2}SI- Modell}{4}\protected@file@percent }
\@writefile{toc}{\contentsline {section}{\numberline {1.3}SIS-Modell}{4}\protected@file@percent }
\@writefile{toc}{\contentsline {section}{\numberline {1.4}SIR-Modell}{4}\protected@file@percent }
\@writefile{toc}{\contentsline {section}{\numberline {1.5}SIRS-Modell}{5}\protected@file@percent }
\@writefile{toc}{\contentsline {section}{\numberline {1.6}SEIR-Modell}{5}\protected@file@percent }
\@writefile{toc}{\contentsline {section}{\numberline {1.7}SEIRS-Modell}{5}\protected@file@percent }
\@writefile{toc}{\contentsline {section}{\numberline {1.8}SEIRD-Modell}{6}\protected@file@percent }
\@writefile{toc}{\contentsline {section}{\numberline {1.9}Modifiziertes SIR-Modell}{6}\protected@file@percent }
\@writefile{toc}{\contentsline {section}{\numberline {1.10}SIR-Modell mit Altersunterscheidung}{6}\protected@file@percent }
\@setckpt{./Chapter/Modellfamilie}{
\setcounter{page}{7}
\setcounter{equation}{0}
\setcounter{enumi}{0}
\setcounter{enumii}{0}
\setcounter{enumiii}{0}
\setcounter{enumiv}{0}
\setcounter{footnote}{0}
\setcounter{mpfootnote}{0}
\setcounter{part}{0}
\setcounter{chapter}{1}
\setcounter{section}{10}
\setcounter{subsection}{0}
\setcounter{subsubsection}{0}
\setcounter{paragraph}{0}
\setcounter{subparagraph}{0}
\setcounter{figure}{1}
\setcounter{table}{1}
\setcounter{perc}{120}
\setcounter{tubspage@vsegments}{8}
\setcounter{tubspage@gausssum}{36}
\setcounter{tmp@calc}{0}
\setcounter{tubs@gb@lastelement}{0}
\setcounter{tubs@gb@calcypos}{0}
\setcounter{tubs@gb@calcheight}{0}
\setcounter{tubs@sb@elementcount}{0}
\setcounter{tubs@sb@xcount}{0}
\setcounter{tubs@cnt}{0}
\setcounter{tubs@sb@current@col}{0}
\setcounter{tubs@sb@current@row}{0}
\setcounter{tubs@sb@current@subrow}{0}
\setcounter{tmp@calc@bgpos}{0}
\setcounter{tmpb@calc@bgpos}{0}
\setcounter{tubs@yseg@cnt}{1}
\setcounter{parentequation}{0}
\setcounter{float@type}{4}
\setcounter{definition}{0}
}
