\relax 
\@writefile{toc}{\contentsline {chapter}{\numberline {1}Neuronale Netze}{1}\protected@file@percent }
\@writefile{lof}{\addvspace {10\p@ }}
\@writefile{lot}{\addvspace {10\p@ }}
\@writefile{toc}{\contentsline {section}{\numberline {1.1}Grundlagen}{1}\protected@file@percent }
\newlabel{Def:KNN}{{1.1}{1}}
\@writefile{toc}{\contentsline {section}{\numberline {1.2}Minimierungsproblem}{2}\protected@file@percent }
\newlabel{Eq:KNN_Min}{{1.1}{2}}
\@writefile{toc}{\contentsline {section}{\numberline {1.3}Gradientenverfahren}{2}\protected@file@percent }
\@writefile{toc}{\contentsline {section}{\numberline {1.4}Fehlerr\IeC {\"u}ckf\IeC {\"u}hrung}{2}\protected@file@percent }
\@writefile{toc}{\contentsline {section}{\numberline {1.5}RMSProp}{4}\protected@file@percent }
\@setckpt{./Chapter/Neuronale_Netze}{
\setcounter{page}{5}
\setcounter{equation}{1}
\setcounter{enumi}{0}
\setcounter{enumii}{0}
\setcounter{enumiii}{0}
\setcounter{enumiv}{0}
\setcounter{footnote}{0}
\setcounter{mpfootnote}{0}
\setcounter{part}{0}
\setcounter{chapter}{1}
\setcounter{section}{5}
\setcounter{subsection}{0}
\setcounter{subsubsection}{0}
\setcounter{paragraph}{0}
\setcounter{subparagraph}{0}
\setcounter{figure}{0}
\setcounter{table}{0}
\setcounter{parentequation}{0}
\setcounter{float@type}{4}
\setcounter{definition}{0}
\setcounter{Beispiel}{0}
}
