\relax 
\@writefile{toc}{\contentsline {chapter}{\numberline {1}Untersuchung des Verhaltens neuronaler Netze}{1}\protected@file@percent }
\@writefile{lof}{\addvspace {10\p@ }}
\@writefile{lot}{\addvspace {10\p@ }}
\newlabel{Eq:Forward}{{1.1}{1}}
\newlabel{Eq:Forward_Disk}{{1.2}{1}}
\newlabel{Eq:Fehlerfun_Disk}{{1.3}{1}}
\@writefile{lof}{\contentsline {figure}{\numberline {1.1}{\ignorespaces Das geht bestimmt eleganter}}{2}\protected@file@percent }
\@writefile{lof}{\contentsline {figure}{\numberline {1.2}{\ignorespaces Neuronales Netz mit zwei verdeckten Neuronen}}{2}\protected@file@percent }
\newlabel{Fig:Beispiel_zwei_Neuronen}{{1.2}{2}}
\newlabel{Eq:DGL1}{{1.4}{2}}
\@setckpt{./Chapter/Untersuchung_KNN}{
\setcounter{page}{4}
\setcounter{equation}{4}
\setcounter{enumi}{0}
\setcounter{enumii}{0}
\setcounter{enumiii}{0}
\setcounter{enumiv}{0}
\setcounter{footnote}{0}
\setcounter{mpfootnote}{0}
\setcounter{part}{0}
\setcounter{chapter}{1}
\setcounter{section}{0}
\setcounter{subsection}{0}
\setcounter{subsubsection}{0}
\setcounter{paragraph}{0}
\setcounter{subparagraph}{0}
\setcounter{figure}{2}
\setcounter{table}{0}
\setcounter{parentequation}{0}
\setcounter{float@type}{4}
\setcounter{definition}{0}
\setcounter{Beispiel}{1}
}
