\babel@toc {ngerman}{}
\contentsline {chapter}{\numberline {1}Untersuchung des Verhaltens neuronaler Netze}{3}% 
\contentsline {section}{\numberline {1.1}Betrachtung des Minimierungsproblems}{3}% 
\contentsline {section}{\numberline {1.2}Methodik}{3}% 
\contentsline {section}{\numberline {1.3}Untersuchung der DGLen}{4}% 
